Homework 2: Solutions
…
gapminder %>%
    filter(between(year,1980,1989)) %>%
    group_by(continent) %>%
    summarize(avg_lifeExp=mean(lifeExp))

5 points What 5 countries have the highest total GDP over all years combined?

gapminder %>%
group_by(country) %>%
    summarize(totalGDP=sum(gdpPercap*pop)) %>%
    arrange(desc(totalGDP)) %>%
    print(n=5)

## # A tibble: 142 x 2
##   country        totalGDP
##   <fct>             <dbl>
## 1 United States   7.68e13
## 2 Japan           2.54e13
## 3 China           2.04e13
## 4 Germany         1.95e13
## 5 United Kingdom  1.33e13
## # ... with 137 more rows
…
We can see that the first time this was recorded was in 1997 in Hong Kong and Japan. Other countries achieved this in 2002 or 2007.

5 points Which three countries have had the most consistent population estimates (i.e.lowest standard deviation) across the years of available data?

gapminder %>%
    group_by(country) %>%
    summarize(standard_deviation=sd(pop)) %>%
    arrange(standard_deviation) %>%
    print(n=3)

## # A tibble: 142 x 2
##   country               standard_deviation
##   <fct>                              <dbl>
## 1 Sao Tome and Principe             45906.
## 2 Iceland                           48542.
## 3 Montenegro                        99738.
## # ... with 139 more rows
…
We can see that Africa has many data points compared to the rest of the continents. They appear to be normally distributed with some positive skewing. Europe may also have a normally distributed life expectancy except with negative skewing. The other distributions for continents shows skewing and the median not in the center of the box. Asia has the biggest variance of all continents. Oceania has the fewest points but this is due to only 2 countries being in this continent.

PHP 2560 Only

6 points Which combinations of continent (besides Asia) and year have the highest average population across all countries? your output should include all results sorted by highest average population. With what you already know, this one may stump you. See this Q&A for how to ungroup before arrangeing.

gapminder %>%
    filter(continent!="Asia") %>%
    group_by(continent,year) %>%
    summarize(average_pop=mean(pop)) %>%
    ungroup() %>%
    arrange(desc(average_pop)) %>%
    select(continent,year,average_pop)

## # A tibble: 48 x 3
##    continent  year average_pop
##    <fct>     <int>       <dbl>
##  1 Americas   2007   35954847.
##  2 Americas   2002   33990910.
##  3 Americas   1997   31876016.
##  4 Americas   1992   29570964.
##  5 Americas   1987   27310159.
##  6 Americas   1982   25211637.
##  7 Americas   1977   23122708.
##  8 Americas   1972   21175368.
##  9 Europe     2007   19536618.
## 10 Europe     2002   19274129.
## # ... with 38 more rows
…
