…
4. What 5 countries have the highest total GDP over all years combined?


```r
gapminder %>%
group_by(country) %>%
    summarize(totalGDP=sum(gdpPercap*pop)) %>%
    arrange(desc(totalGDP)) %>%
    print(n=5)
```

```
## # A tibble: 142 x 2
##   country        totalGDP
##   <fct>             <dbl>
## 1 United States   7.68e13
## 2 Japan           2.54e13
## 3 China           2.04e13
## 4 Germany         1.95e13
## 5 United Kingdom  1.33e13
## # ... with 137 more rows
```
…
6. Which three countries have had the most consistent population estimates (i.e. lowest standard deviation) across the years of available data? 


```r
gapminder %>%
    group_by(country) %>%
    summarize(standard_deviation=sd(pop)) %>%
    arrange(standard_deviation) %>%
    print(n=3)
```

```
## # A tibble: 142 x 2
##   country               standard_deviation
##   <fct>                              <dbl>
## 1 Sao Tome and Principe             45906.
## 2 Iceland                           48542.
## 3 Montenegro                        99738.
## # ... with 139 more rows
```
…
11. Which combinations of continent (besides Asia) and year have the highest average population across all countries? *your output should include all results sorted by highest average population*. With what you already know, this one may stump you. See [this Q&A](http://stackoverflow.com/q/27207963/654296) for how to `ungroup` before `arrange`ing. 


```r
gapminder %>%
    filter(continent!="Asia") %>%
    group_by(continent,year) %>%
    summarize(average_pop=mean(pop)) %>%
    ungroup() %>%
    arrange(desc(average_pop)) %>%
    select(continent,year,average_pop)
```

```
## # A tibble: 48 x 3
##    continent  year average_pop
##    <fct>     <int>       <dbl>
##  1 Americas   2007   35954847.
##  2 Americas   2002   33990910.
##  3 Americas   1997   31876016.
##  4 Americas   1992   29570964.
##  5 Americas   1987   27310159.
##  6 Americas   1982   25211637.
##  7 Americas   1977   23122708.
##  8 Americas   1972   21175368.
##  9 Europe     2007   19536618.
## 10 Europe     2002   19274129.
## # ... with 38 more rows
```
…
