…
--- .class #id

## Simulations

Start with the data:


```r
data3
```

```
## # A tibble: 500 x 2
##    Food     days
##    <chr>   <dbl>
##  1 organic  14.0
##  2 organic  20.5
##  3 organic  25.3
##  4 organic  10.4
##  5 organic  21.4
##  6 organic  21.8
##  7 organic  16.5
##  8 organic  16.6
##  9 organic  16.5
## 10 organic  15.2
## # ... with 490 more rows
```
…
