…
- The following is a new function:
  - Helper function `n()` counts the number of rows in a group
- Then for each year and continent:
  - count total lifeExp
  - Sort in descending order. 

--- .class #id

## On Your Own: RStudio Practice 

Your answer should look like:


```
## # A tibble: 60 x 3
## # Groups:   continent [5]
##    continent  year lifeExp_count
##    <fct>     <int>         <int>
##  1 Africa     1952            52
##  2 Africa     1957            52
##  3 Africa     1962            52
##  4 Africa     1967            52
##  5 Africa     1972            52
##  6 Africa     1977            52
##  7 Africa     1982            52
##  8 Africa     1987            52
##  9 Africa     1992            52
## 10 Africa     1997            52
## # ... with 50 more rows
```


We could also have used what is called the  `tally()` function:


```r
gapminder %>%
    group_by(country, year) %>%
    tally(sort = TRUE)
```

```
## # A tibble: 1,704 x 3
## # Groups:   country [142]
##    country      year     n
##    <fct>       <int> <int>
##  1 Afghanistan  1952     1
##  2 Afghanistan  1957     1
##  3 Afghanistan  1962     1
##  4 Afghanistan  1967     1
##  5 Afghanistan  1972     1
##  6 Afghanistan  1977     1
##  7 Afghanistan  1982     1
##  8 Afghanistan  1987     1
##  9 Afghanistan  1992     1
## 10 Afghanistan  1997     1
## # ... with 1,694 more rows
```
…
```r
comic_characters %>% 
    group_by(year) %>% 
    tally(sort=TRUE)
```

--- .class #id

## Grouping, counting and sorting: `tally()`


```
## # A tibble: 80 x 2
##     year     n
##    <int> <int>
##  1    NA   884
##  2  1993   763
##  3  1994   715
##  4  2006   684
##  5  1992   633
##  6  2010   603
##  7  1988   590
##  8  1989   587
##  9  2008   571
## 10  1990   532
## # ... with 70 more rows
```
…
