…
```r
library(tidyverse)
comic_characters %>%
  filter(publisher=="Marvel")
```

--- .class #id

## Filtering Example


```
## # A tibble: 16,376 x 16
##    publisher page_id name  urlslug id    align eye   hair  sex   gsm  
##    <chr>       <int> <chr> <chr>   <chr> <ord> <chr> <chr> <chr> <chr>
##  1 Marvel       1678 Spid~ "\\/Sp~ Secr~ Good~ Haze~ Brow~ Male~ <NA> 
##  2 Marvel       7139 Capt~ "\\/Ca~ Publ~ Good~ Blue~ Whit~ Male~ <NA> 
##  3 Marvel      64786 "Wol~ "\\/Wo~ Publ~ <NA>  Blue~ Blac~ Male~ <NA> 
##  4 Marvel       1868 "Iro~ "\\/Ir~ Publ~ Good~ Blue~ Blac~ Male~ <NA> 
##  5 Marvel       2460 Thor~ "\\/Th~ No D~ Good~ Blue~ Blon~ Male~ <NA> 
##  6 Marvel       2458 Benj~ "\\/Be~ Publ~ Good~ Blue~ No H~ Male~ <NA> 
##  7 Marvel       2166 Reed~ "\\/Re~ Publ~ Good~ Brow~ Brow~ Male~ <NA> 
##  8 Marvel       1833 Hulk~ "\\/Hu~ Publ~ Good~ Brow~ Brow~ Male~ <NA> 
##  9 Marvel      29481 Scot~ "\\/Sc~ Publ~ <NA>  Brow~ Brow~ Male~ <NA> 
## 10 Marvel       1837 Jona~ "\\/Jo~ Publ~ Good~ Blue~ Blon~ Male~ <NA> 
## # ... with 16,366 more rows, and 6 more variables: alive <chr>,
## #   appearances <int>, first_appearance <chr>, month <chr>, year <int>,
## #   date <date>
```
…
```r
comic_characters %>%
    filter(publisher=="Marvel") %>%
    filter(year<1970)
```


--- .class #id

## Results


```
## # A tibble: 3,118 x 16
##    publisher page_id name  urlslug id    align eye   hair  sex   gsm  
##    <chr>       <int> <chr> <chr>   <chr> <ord> <chr> <chr> <chr> <chr>
##  1 Marvel       1678 Spid~ "\\/Sp~ Secr~ Good~ Haze~ Brow~ Male~ <NA> 
##  2 Marvel       7139 Capt~ "\\/Ca~ Publ~ Good~ Blue~ Whit~ Male~ <NA> 
##  3 Marvel       1868 "Iro~ "\\/Ir~ Publ~ Good~ Blue~ Blac~ Male~ <NA> 
##  4 Marvel       2460 Thor~ "\\/Th~ No D~ Good~ Blue~ Blon~ Male~ <NA> 
##  5 Marvel       2458 Benj~ "\\/Be~ Publ~ Good~ Blue~ No H~ Male~ <NA> 
##  6 Marvel       2166 Reed~ "\\/Re~ Publ~ Good~ Brow~ Brow~ Male~ <NA> 
##  7 Marvel       1833 Hulk~ "\\/Hu~ Publ~ Good~ Brow~ Brow~ Male~ <NA> 
##  8 Marvel      29481 Scot~ "\\/Sc~ Publ~ <NA>  Brow~ Brow~ Male~ <NA> 
##  9 Marvel       1837 Jona~ "\\/Jo~ Publ~ Good~ Blue~ Blon~ Male~ <NA> 
## 10 Marvel      15725 Henr~ "\\/He~ Publ~ Good~ Blue~ Blue~ Male~ <NA> 
## # ... with 3,108 more rows, and 6 more variables: alive <chr>,
## #   appearances <int>, first_appearance <chr>, month <chr>, year <int>,
## #   date <date>
```
…
```r
comic_characters %>% 
    filter(year>=1980 & year<=1985)
```

--- .class #id


## Further Filtering


```
## # A tibble: 2,054 x 16
##    publisher page_id name  urlslug id    align eye   hair  sex   gsm  
##    <chr>       <int> <chr> <chr>   <chr> <ord> <chr> <chr> <chr> <chr>
##  1 Marvel       2527 Kath~ "\\/Ka~ Secr~ Good~ Haze~ Brow~ Fema~ <NA> 
##  2 Marvel      37690 Jenn~ "\\/Je~ Publ~ Good~ Gree~ Brow~ Fema~ <NA> 
##  3 Marvel       3765 Emma~ "\\/Em~ Publ~ <NA>  Blue~ Brow~ Fema~ <NA> 
##  4 Marvel       1276 Samu~ "\\/Sa~ Secr~ Good~ Blue~ Blon~ Male~ <NA> 
##  5 Marvel       2626 Robe~ "\\/Ro~ Secr~ Good~ Brow~ Blac~ Male~ <NA> 
##  6 Marvel       2007 Rahn~ "\\/Ra~ Secr~ Good~ Gree~ Red ~ Fema~ <NA> 
##  7 Marvel       1395 Dani~ "\\/Da~ Secr~ Good~ Brow~ Blac~ Fema~ <NA> 
##  8 Marvel       1404 Alis~ "\\/Al~ Publ~ Good~ Blue~ Stra~ Fema~ <NA> 
##  9 Marvel      18186 Veno~ "\\/Ve~ Know~ <NA>  Vari~ No H~ Agen~ <NA> 
## 10 Marvel       1973 Jame~ "\\/Ja~ Secr~ Good~ Brow~ Blac~ Male~ <NA> 
## # ... with 2,044 more rows, and 6 more variables: alive <chr>,
## #   appearances <int>, first_appearance <chr>, month <chr>, year <int>,
## #   date <date>
```
…
- Choose only rows associated with
  - Uganda
  - Rwanda

--- .class #id


## On Your Own: RStudio Practice


Your end result should be:


```
## # A tibble: 24 x 6
##    country continent  year lifeExp     pop gdpPercap
##    <fct>   <fct>     <int>   <dbl>   <int>     <dbl>
##  1 Rwanda  Africa     1952    40   2534927      493.
##  2 Rwanda  Africa     1957    41.5 2822082      540.
##  3 Rwanda  Africa     1962    43   3051242      597.
##  4 Rwanda  Africa     1967    44.1 3451079      511.
##  5 Rwanda  Africa     1972    44.6 3992121      591.
##  6 Rwanda  Africa     1977    45   4657072      670.
##  7 Rwanda  Africa     1982    46.2 5507565      882.
##  8 Rwanda  Africa     1987    44.0 6349365      848.
##  9 Rwanda  Africa     1992    23.6 7290203      737.
## 10 Rwanda  Africa     1997    36.1 7212583      590.
## # ... with 14 more rows
```
…
```r
comic_characters %>%
    select(name, sex, eye, hair)
```


--- .class #id

## Selecting Example Continued



```
## # A tibble: 23,272 x 4
##    name                                  sex            eye       hair     
##    <chr>                                 <chr>          <chr>     <chr>    
##  1 Spider-Man (Peter Parker)             Male Characte~ Hazel Ey~ Brown Ha~
##  2 Captain America (Steven Rogers)       Male Characte~ Blue Eyes White Ha~
##  3 "Wolverine (James \\\"Logan\\\" Howl~ Male Characte~ Blue Eyes Black Ha~
##  4 "Iron Man (Anthony \\\"Tony\\\" Star~ Male Characte~ Blue Eyes Black Ha~
##  5 Thor (Thor Odinson)                   Male Characte~ Blue Eyes Blond Ha~
##  6 Benjamin Grimm (Earth-616)            Male Characte~ Blue Eyes No Hair  
##  7 Reed Richards (Earth-616)             Male Characte~ Brown Ey~ Brown Ha~
##  8 Hulk (Robert Bruce Banner)            Male Characte~ Brown Ey~ Brown Ha~
##  9 Scott Summers (Earth-616)             Male Characte~ Brown Ey~ Brown Ha~
## 10 Jonathan Storm (Earth-616)            Male Characte~ Blue Eyes Blond Ha~
## # ... with 23,262 more rows
```
…
--- .class #id

## On Your Own: RStudio Practice


Your answer should look like:


```
## # A tibble: 1,704 x 1
##    gdpPercap
##        <dbl>
##  1      779.
##  2      821.
##  3      853.
##  4      836.
##  5      740.
##  6      786.
##  7      978.
##  8      852.
##  9      649.
## 10      635.
## # ... with 1,694 more rows
```
…
```r
comic_characters %>%
    select(name,year,  appearances) %>%
    arrange(appearances)
```

--- .class #id

## Arranging the Data Example Continued


```
## # A tibble: 23,272 x 3
##    name                                   year appearances
##    <chr>                                 <int>       <int>
##  1 Bardak (Earth-616)                     1939           1
##  2 Bends (Masked Raider) (Earth-616)      1939           1
##  3 Blackie Ross (Earth-616)               1939           1
##  4 Bleck (Earth-616)                      1939           1
##  5 Cal Brunder (Earth-616)                1939           1
##  6 Constance Rand (Earth-616)             1939           1
##  7 Dead Shot (Masked Raider) (Earth-616)  1939           1
##  8 Dr. Lang (The Big Boss) (Earth-616)    1939           1
##  9 Dutch Hansen (Earth-616)               1939           1
## 10 Ganya (Earth-616)                      1939           1
## # ... with 23,262 more rows
```
…
- Where
    - `group_by()` is a way to group data. This way we perform operations on a group. So top 3 appearances are grouped by year. 
    - `top_n()`takes a tibble and returns a specific number of rows based on a chosen value. 


--- .class #id

## More Complex Arrange Continued



```
## # A tibble: 241 x 16
## # Groups:   year [80]
##    publisher page_id name  urlslug id    align eye   hair  sex   gsm  
##    <chr>       <int> <chr> <chr>   <chr> <ord> <chr> <chr> <chr> <chr>
##  1 Marvel       1678 Spid~ "\\/Sp~ Secr~ Good~ Haze~ Brow~ Male~ <NA> 
##  2 Marvel       7139 Capt~ "\\/Ca~ Publ~ Good~ Blue~ Whit~ Male~ <NA> 
##  3 DC           1422 Batm~ "\\/wi~ Secr~ Good~ Blue~ Blac~ Male~ <NA> 
##  4 Marvel      64786 "Wol~ "\\/Wo~ Publ~ <NA>  Blue~ Blac~ Male~ <NA> 
##  5 Marvel       1868 "Iro~ "\\/Ir~ Publ~ Good~ Blue~ Blac~ Male~ <NA> 
##  6 DC          23387 Supe~ "\\/wi~ Secr~ Good~ Blue~ Blac~ Male~ <NA> 
##  7 Marvel       2460 Thor~ "\\/Th~ No D~ Good~ Blue~ Blon~ Male~ <NA> 
##  8 Marvel       2458 Benj~ "\\/Be~ Publ~ Good~ Blue~ No H~ Male~ <NA> 
##  9 Marvel       2166 Reed~ "\\/Re~ Publ~ Good~ Brow~ Brow~ Male~ <NA> 
## 10 Marvel       1833 Hulk~ "\\/Hu~ Publ~ Good~ Brow~ Brow~ Male~ <NA> 
## # ... with 231 more rows, and 6 more variables: alive <chr>,
## #   appearances <int>, first_appearance <chr>, month <chr>, year <int>,
## #   date <date>
```
…
```r
comic_characters %>%
    select(name, year, appearances) %>%
    mutate(total_years = 2014-year) %>%
    mutate(avg_appearances = appearances/total_years) %>%
    arrange(desc(total_years))
```

--- .class #id

## Example: Mutate


```
## # A tibble: 23,272 x 5
##    name                        year appearances total_years avg_appearances
##    <chr>                      <int>       <int>       <dbl>           <dbl>
##  1 Richard Occult (New Earth)  1935         125          79          1.58  
##  2 Merlin (New Earth)          1936          92          78          1.18  
##  3 Franklin Delano Roosevelt~  1936          52          78          0.667 
##  4 Arthur Pendragon (New Ear~  1936          41          78          0.526 
##  5 Lancelot (New Earth)        1936          18          78          0.231 
##  6 Guinevere (New Earth)       1936          15          78          0.192 
##  7 Lady of the Lake (New Ear~  1936          13          78          0.167 
##  8 Gawain (New Earth)          1936           8          78          0.103 
##  9 Gareth (New Earth)          1936           1          78          0.0128
## 10 Bedivere (New Earth)        1936          NA          78         NA     
## # ... with 23,262 more rows
```


--- .class #id

## Changing the sort


```
## # A tibble: 23,272 x 5
##    name                        year appearances total_years avg_appearances
##    <chr>                      <int>       <int>       <dbl>           <dbl>
##  1 Eva Bell (Earth-616)        2013          53           1              53
##  2 Christopher Muse (Earth-6~  2013          49           1              49
##  3 Benjamin Deeds (Earth-616)  2013          40           1              40
##  4 Fabio Medina (Earth-616)    2013          39           1              39
##  5 Isabel Kane (Earth-616)     2013          31           1              31
##  6 Emily Preston (Earth-616)   2013          28           1              28
##  7 Iara Dos Santos (Earth-61~  2013          28           1              28
##  8 Kevin Connor (Earth-616)    2013          28           1              28
##  9 Anna Maria Marconi (Earth~  2013          26           1              26
## 10 H.E.L.E.N. (Earth-616)      2013          24           1              24
## # ... with 23,262 more rows
```
…
