…
--- .class #id

## Generate Bootstraps




```
## # Bootstrap sampling 
## # A tibble: 1,000 x 2
##    splits              id           
##    <list>              <chr>        
##  1 <split [6.7K/2.5K]> Bootstrap0001
##  2 <split [6.7K/2.5K]> Bootstrap0002
##  3 <split [6.7K/2.4K]> Bootstrap0003
##  4 <split [6.7K/2.5K]> Bootstrap0004
##  5 <split [6.7K/2.4K]> Bootstrap0005
##  6 <split [6.7K/2.5K]> Bootstrap0006
##  7 <split [6.7K/2.4K]> Bootstrap0007
##  8 <split [6.7K/2.5K]> Bootstrap0008
##  9 <split [6.7K/2.5K]> Bootstrap0009
## 10 <split [6.7K/2.4K]> Bootstrap0010
## # ... with 990 more rows
```
…
--- .class #id

## Pass Function to Bootstraps




```
## # Bootstrap sampling 
## # A tibble: 1,000 x 3
##    splits              id            bt_means
##    <list>              <chr>            <dbl>
##  1 <split [6.7K/2.5K]> Bootstrap0001     5.40
##  2 <split [6.7K/2.5K]> Bootstrap0002     5.32
##  3 <split [6.7K/2.4K]> Bootstrap0003     5.43
##  4 <split [6.7K/2.5K]> Bootstrap0004     5.48
##  5 <split [6.7K/2.4K]> Bootstrap0005     5.47
##  6 <split [6.7K/2.5K]> Bootstrap0006     5.41
##  7 <split [6.7K/2.4K]> Bootstrap0007     5.39
##  8 <split [6.7K/2.5K]> Bootstrap0008     5.68
##  9 <split [6.7K/2.5K]> Bootstrap0009     5.60
## 10 <split [6.7K/2.4K]> Bootstrap0010     5.51
## # ... with 990 more rows
```
…
--- .class #id

## The bootstraps

- We will create 1000 bootstraps


```
## # Bootstrap sampling 
## # A tibble: 1,000 x 2
##    splits              id           
##    <list>              <chr>        
##  1 <split [6.7K/2.5K]> Bootstrap0001
##  2 <split [6.7K/2.5K]> Bootstrap0002
##  3 <split [6.7K/2.4K]> Bootstrap0003
##  4 <split [6.7K/2.5K]> Bootstrap0004
##  5 <split [6.7K/2.5K]> Bootstrap0005
##  6 <split [6.7K/2.5K]> Bootstrap0006
##  7 <split [6.7K/2.4K]> Bootstrap0007
##  8 <split [6.7K/2.5K]> Bootstrap0008
##  9 <split [6.7K/2.5K]> Bootstrap0009
## 10 <split [6.7K/2.4K]> Bootstrap0010
## # ... with 990 more rows
```
…
```r
analysis(bt_data2$splits[[1]]) %>% as_tibble()
```



--- .class #id

## What the data is like. 


```
## # A tibble: 6,663 x 1
##    menthlth
##       <dbl>
##  1        1
##  2        0
##  3        0
##  4        0
##  5        7
##  6        6
##  7        1
##  8        0
##  9        0
## 10        0
## # ... with 6,653 more rows
```
…
