Summarization of Data
…
    What do we have?

gender_year

## # A tibble: 457 x 4
## # Groups:   year, gender [?]
##     year gender            publisher     n
##    <int> <chr>             <chr>     <int>
##  1  1935 Male Characters   DC            1
##  2  1936 Female Characters DC            2
##  3  1936 Male Characters   DC            7
##  4  1937 Female Characters DC            1
##  5  1937 Male Characters   DC            3
##  6  1938 Female Characters DC            1
##  7  1938 Male Characters   DC            9
##  8  1939 Female Characters DC            5
##  9  1939 Female Characters Marvel       10
## 10  1939 Male Characters   DC           13
## # ... with 447 more rows
…
