…
## Hypothesis Testing Recap

- Let's consider our last hypothesis test. 
- We were wondering whether mental health days were associated with emotional support. 



```r
load("../Notes/Data/organic.rda")
organic
```

```
## # A tibble: 2,671 x 12
##     SEQN IND235 CBD740 SMQ020 HSD010 CBD630 health organic income smoke
##    <dbl>  <dbl>  <dbl>  <dbl>  <dbl>  <dbl> <fct>  <fct>    <dbl> <fct>
##  1 51628      3      2      1      4    2   Fair   No       1024. Yes  
##  2 51630      6      1      1      3    6   Good   Yes      2500. Yes  
##  3 51635      4      2      1      3    1   Good   No       1450. Yes  
##  4 51643      7      1      2      5    2   Poor   Yes      3324. No   
##  5 51647      9      2      2      2    5   Very ~ No       5000. No   
##  6 51648      2      2      1      4    2   Fair   No        600. Yes  
##  7 51656     12      1      2      2    6   Very ~ Yes      9000  No   
##  8 51664     12      2      1      1    4   Excel~ No       9000  Yes  
##  9 51668      2      2      1      3    1.5 Good   No        600. Yes  
## 10 51670      1      1      2      1    5   Excel~ Yes       200. No   
## # ... with 2,661 more rows, and 2 more variables: veggies <dbl>,
## #   health.bin <fct>
```
…
